Singlecycle/arm.vcd
$date
	Tue Dec 14 20:02:16 2021
$end
$version
	Icarus Verilog
$end
$timescale
	1s
$end
$scope module testbench $end
$var wire 32 ! WriteData [31:0] $end
$var wire 1 " MemWrite $end
$var wire 32 # DataAdr [31:0] $end
$var reg 1 $ clk $end
$var reg 1 % reset $end
$scope module dut $end
$var wire 1 $ clk $end
$var wire 1 % reset $end
$var wire 32 & WriteData [31:0] $end
$var wire 32 ' ReadData [31:0] $end
$var wire 32 ( PC [31:0] $end
$var wire 1 " MemWrite $end
$var wire 32 ) Instr [31:0] $end
$var wire 32 * DataAdr [31:0] $end
$scope module arm $end
$var wire 2 + ImmSrc [1:0] $end
$var wire 2 , RegSrc [1:0] $end
$var wire 1 $ clk $end
$var wire 1 % reset $end
$var wire 32 - WriteData [31:0] $end
$var wire 1 . RegWrite $end
$var wire 32 / ReadData [31:0] $end
$var wire 1 0 PCSrc $end
$var wire 32 1 PC [31:0] $end
$var wire 1 2 MemtoReg $end
$var wire 1 " MemWrite $end
$var wire 32 3 Instr [31:0] $end
$var wire 1 4 ALUSrc $end
$var wire 32 5 ALUResult [31:0] $end
$var wire 4 6 ALUFlags [3:0] $end
$var wire 3 7 ALUControl [2:0] $end
$scope module c $end
$var wire 2 8 ImmSrc [1:0] $end
$var wire 20 9 Instr [31:12] $end
$var wire 2 : RegSrc [1:0] $end
$var wire 1 $ clk $end
$var wire 1 % reset $end
$var wire 1 . RegWrite $end
$var wire 1 ; RegW $end
$var wire 1 0 PCSrc $end
$var wire 1 < PCS $end
$var wire 1 2 MemtoReg $end
$var wire 1 " MemWrite $end
$var wire 1 = MemW $end
$var wire 2 > FlagW [1:0] $end
$var wire 1 4 ALUSrc $end
$var wire 4 ? ALUFlags [3:0] $end
$var wire 3 @ ALUControl [2:0] $end
$scope module cl $end
$var wire 4 A Cond [3:0] $end
$var wire 2 B FlagWrite [1:0] $end
$var wire 1 " MemWrite $end
$var wire 1 0 PCSrc $end
$var wire 1 . RegWrite $end
$var wire 1 $ clk $end
$var wire 1 % reset $end
$var wire 1 ; RegW $end
$var wire 1 < PCS $end
$var wire 1 = MemW $end
$var wire 4 C Flags [3:0] $end
$var wire 2 D FlagW [1:0] $end
$var wire 1 E CondEx $end
$var wire 4 F ALUFlags [3:0] $end
$scope module cc $end
$var wire 4 G Cond [3:0] $end
$var wire 4 H Flags [3:0] $end
$var wire 1 I ge $end
$var wire 1 J zero $end
$var wire 1 K overflow $end
$var wire 1 L neg $end
$var wire 1 M carry $end
$var reg 1 E CondEx $end
$upscope $end
$scope module flagreg0 $end
$var wire 1 $ clk $end
$var wire 2 N d [1:0] $end
$var wire 1 O en $end
$var wire 1 % reset $end
$var reg 2 P q [1:0] $end
$upscope $end
$scope module flagreg1 $end
$var wire 1 $ clk $end
$var wire 2 Q d [1:0] $end
$var wire 1 R en $end
$var wire 1 % reset $end
$var reg 2 S q [1:0] $end
$upscope $end
$upscope $end
$scope module dec $end
$var wire 6 T Funct [5:0] $end
$var wire 2 U ImmSrc [1:0] $end
$var wire 4 V MulOp [3:0] $end
$var wire 2 W Op [1:0] $end
$var wire 1 < PCS $end
$var wire 4 X Rd [3:0] $end
$var wire 2 Y RegSrc [1:0] $end
$var wire 1 ; RegW $end
$var wire 1 2 MemtoReg $end
$var wire 1 = MemW $end
$var wire 1 Z Branch $end
$var wire 1 4 ALUSrc $end
$var wire 1 [ ALUOp $end
$var reg 3 \ ALUControl [2:0] $end
$var reg 2 ] FlagW [1:0] $end
$var reg 10 ^ controls [9:0] $end
$upscope $end
$upscope $end
$scope module dp $end
$var wire 3 _ ALUControl [2:0] $end
$var wire 1 4 ALUSrc $end
$var wire 2 ` ImmSrc [1:0] $end
$var wire 1 2 MemtoReg $end
$var wire 1 0 PCSrc $end
$var wire 2 a RegSrc [1:0] $end
$var wire 1 . RegWrite $end
$var wire 1 $ clk $end
$var wire 1 % reset $end
$var wire 32 b WriteData [31:0] $end
$var wire 32 c SrcB [31:0] $end
$var wire 32 d SrcA [31:0] $end
$var wire 32 e ResultExtra [31:0] $end
$var wire 32 f Result [31:0] $end
$var wire 32 g ReadData [31:0] $end
$var wire 4 h RA2 [3:0] $end
$var wire 4 i RA1 [3:0] $end
$var wire 32 j PCPlus8 [31:0] $end
$var wire 32 k PCPlus4 [31:0] $end
$var wire 32 l PCNext [31:0] $end
$var wire 32 m PC [31:0] $end
$var wire 32 n Instr [31:0] $end
$var wire 32 o FPUResult [31:0] $end
$var wire 4 p FPUFlags [3:0] $end
$var wire 32 q ExtImm [31:0] $end
$var wire 32 r ALUResult1 [31:0] $end
$var wire 32 s ALUResult [31:0] $end
$var wire 4 t ALUFlags1 [3:0] $end
$var wire 4 u ALUFlags [3:0] $end
$scope module alu $end
$var wire 3 v ALUControl [2:0] $end
$var wire 1 w carry $end
$var wire 1 x overflow $end
$var wire 1 y zero $end
$var wire 33 z sum [32:0] $end
$var wire 1 { negative $end
$var wire 32 | b [31:0] $end
$var wire 32 } a [31:0] $end
$var wire 4 ~ ALUFlags [3:0] $end
$var reg 32 !" Result [31:0] $end
$var reg 32 "" ResultExtra [31:0] $end
$upscope $end
$scope module ext $end
$var wire 2 #" ImmSrc [1:0] $end
$var wire 24 $" Instr [23:0] $end
$var reg 32 %" ExtImm [31:0] $end
$upscope $end
$scope module fpu $end
$var wire 1 &" Carry $end
$var wire 1 '" FPUControl $end
$var wire 1 (" floatType $end
$var wire 1 )" Zero $end
$var wire 1 *" Overflow $end
$var wire 1 +" Negative $end
$var wire 4 ," FPUFlags [3:0] $end
$var wire 32 -" B [31:0] $end
$var wire 32 ." A [31:0] $end
$var reg 32 /" Prod [31:0] $end
$var reg 32 0" Result [31:0] $end
$var reg 32 1" Sum [31:0] $end
$var reg 32 2" expA [31:0] $end
$var reg 32 3" expB [31:0] $end
$var reg 32 4" expDif [31:0] $end
$var reg 32 5" expFinADD [31:0] $end
$var reg 64 6" expFinPROD [63:0] $end
$var reg 32 7" mantA [31:0] $end
$var reg 32 8" mantB [31:0] $end
$var reg 32 9" mantFinADD [31:0] $end
$var reg 64 :" mantFinPROD [63:0] $end
$var reg 32 ;" norm [31:0] $end
$var integer 32 <" i [31:0] $end
$upscope $end
$scope module pcadd1 $end
$var wire 32 =" b [31:0] $end
$var wire 32 >" y [31:0] $end
$var wire 32 ?" a [31:0] $end
$upscope $end
$scope module pcadd2 $end
$var wire 32 @" a [31:0] $end
$var wire 32 A" b [31:0] $end
$var wire 32 B" y [31:0] $end
$upscope $end
$scope module pcmux $end
$var wire 32 C" d0 [31:0] $end
$var wire 1 0 s $end
$var wire 32 D" y [31:0] $end
$var wire 32 E" d1 [31:0] $end
$upscope $end
$scope module pcreg $end
$var wire 1 $ clk $end
$var wire 32 F" d [31:0] $end
$var wire 1 % reset $end
$var reg 32 G" q [31:0] $end
$upscope $end
$scope module ra1mux $end
$var wire 4 H" d0 [3:0] $end
$var wire 4 I" d1 [3:0] $end
$var wire 1 J" s $end
$var wire 4 K" y [3:0] $end
$upscope $end
$scope module ra2mux $end
$var wire 4 L" d0 [3:0] $end
$var wire 4 M" d1 [3:0] $end
$var wire 1 N" s $end
$var wire 4 O" y [3:0] $end
$upscope $end
$scope module resmux $end
$var wire 32 P" d0 [31:0] $end
$var wire 1 2 s $end
$var wire 32 Q" y [31:0] $end
$var wire 32 R" d1 [31:0] $end
$upscope $end
$scope module rf $end
$var wire 4 S" WriteA3 [3:0] $end
$var wire 32 T" WriteD3 [31:0] $end
$var wire 1 . WriteEn3 $end
$var wire 1 $ clk $end
$var wire 32 U" r15 [31:0] $end
$var wire 4 V" ra1 [3:0] $end
$var wire 4 W" ra2 [3:0] $end
$var wire 32 X" rd2 [31:0] $end
$var wire 32 Y" rd1 [31:0] $end
$upscope $end
$scope module srcbmux $end
$var wire 32 Z" d0 [31:0] $end
$var wire 32 [" d1 [31:0] $end
$var wire 1 4 s $end
$var wire 32 \" y [31:0] $end
$upscope $end
$upscope $end
$upscope $end
$scope module dmem $end
$var wire 32 ]" a [31:0] $end
$var wire 1 $ clk $end
$var wire 32 ^" rd [31:0] $end
$var wire 32 _" wd [31:0] $end
$var wire 1 " we $end
$upscope $end
$scope module imem $end
$var wire 32 `" a [31:0] $end
$var wire 32 a" rd [31:0] $end
$upscope $end
$upscope $end
$upscope $end
$enddefinitions $end
#0
$dumpvars
b11100000010011110000000010011111 a"
b0 `"
b1000 _"
bx ^"
b0 ]"
b1000 \"
b10011111 ["
b1000 Z"
b1000 Y"
b1000 X"
b1111 W"
b1111 V"
b1000 U"
b0 T"
b0 S"
bx R"
b0 Q"
b0 P"
b1111 O"
0N"
b0 M"
b1111 L"
b1111 K"
0J"
b1111 I"
b1111 H"
b0 G"
b100 F"
b0 E"
b100 D"
b100 C"
b1000 B"
b100 A"
b100 @"
b0 ?"
b100 >"
b100 ="
b10100 <"
b10000000000 ;"
b1000001000000010000000000000000000000000000000000000000000000000 :"
b10000001000 9"
b10000001000 8"
b10000001000 7"
b1111111111111111111111111111111111111111111111111111111111110001 6"
b1 5"
b0 4"
b0 3"
b0 2"
b10000001000 1"
b100010000010000 0"
b100010000010000 /"
b1000 ."
b1000 -"
b0 ,"
0+"
0*"
0)"
0("
1'"
0&"
b10011111 %"
b10011110000000010011111 $"
b0 #"
bx ""
b0 !"
b100 ~
b1000 }
b1000 |
0{
b0 z
1y
0x
0w
b1 v
b100 u
b100 t
b0 s
b0 r
b10011111 q
b0 p
b100010000010000 o
b11100000010011110000000010011111 n
b0 m
b100 l
b100 k
b1000 j
b1111 i
b1111 h
bx g
b0 f
bx e
b1000 d
b1000 c
b1000 b
b0 a
b0 `
b1 _
b1001 ^
b0 ]
b1 \
1[
0Z
b0 Y
b0 X
b0 W
bx V
b0 U
b100 T
b0 S
0R
b1 Q
b0 P
0O
b0 N
0M
0L
0K
0J
1I
b0 H
b1110 G
b100 F
1E
b0 D
b0 C
b0 B
b1110 A
b1 @
b100 ?
b0 >
0=
0<
1;
b0 :
b11100000010011110000 9
b0 8
b1 7
b100 6
b0 5
04
b11100000010011110000000010011111 3
02
b0 1
00
bx /
1.
b1000 -
b0 ,
b0 +
b0 *
b11100000010011110000000010011111 )
b0 (
bx '
b1000 &
1%
1$
b0 #
0"
b1000 !
$end
#5
0$
#10
1$
#15
0$
#20
1$
#22
0%
#25
0$
#30
b0 N
0w
0{
14
b0 7
b0 @
b0 \
b0 _
b0 v
b101001 ^
b0 Q
b101 f
b101 E"
b101 Q"
b101 T"
b101 q
b101 %"
b101 ["
b101 h
b101 O"
b101 W"
b0 i
b0 K"
b0 V"
b101000 T
b10 X
b0 6
b0 ?
b0 F
b0 u
b101 #
b101 *
b101 5
b101 s
b101 P"
b101 ]"
0'"
b100000000010000000000101 $"
b10 S"
b10 M"
b101 L"
b0 H"
b11100010100000000010 9
b0 t
b0 ~
0y
b101 r
b101 !"
b10000000010 o
b10000000010 0"
b100010000011000 /"
b111111 <"
b1000001100000100100000000000000000000000000000000000000000000000 :"
b10000000010 1"
b10000000010 9"
b1 5"
b10000000101 8"
b10000000000 7"
b101 c
b101 |
b101 -"
b101 \"
b11100010100000000010000000000101 )
b11100010100000000010000000000101 3
b11100010100000000010000000000101 n
b11100010100000000010000000000101 a"
b101 z
b0 d
b0 }
b0 ."
b0 Y"
bx !
bx &
bx -
bx b
bx X"
bx Z"
bx _"
b1000 l
b1000 D"
b1000 F"
b1100 j
b1100 B"
b1100 U"
b1000 k
b1000 >"
b1000 @"
b1000 C"
b100 (
b100 1
b100 m
b100 ?"
b100 G"
b100 `"
1$
#35
0$
#40
b1100 f
b1100 E"
b1100 Q"
b1100 T"
b1100 #
b1100 *
b1100 5
b1100 s
b1100 P"
b1100 ]"
b1100 r
b1100 !"
b1100 z
b10000000110 o
b10000000110 0"
b100010000011000 /"
b10000000110 1"
b10000000110 9"
b1 5"
b10000001100 8"
b1100 c
b1100 |
b1100 -"
b1100 \"
b1100 q
b1100 %"
b1100 ["
b1100 h
b1100 O"
b1100 W"
b11 X
b100000000011000000001100 $"
b11 S"
b11 M"
b1100 L"
b11100010100000000011 9
b11100010100000000011000000001100 )
b11100010100000000011000000001100 3
b11100010100000000011000000001100 n
b11100010100000000011000000001100 a"
b1100 l
b1100 D"
b1100 F"
b10000 j
b10000 B"
b10000 U"
b1100 k
b1100 >"
b1100 @"
b1100 C"
b1000 (
b1000 1
b1000 m
b1000 ?"
b1000 G"
b1000 `"
1$
#45
0$
#50
b11 f
b11 E"
b11 Q"
b11 T"
b11 #
b11 *
b11 5
b11 s
b11 P"
b11 ]"
b10000001010 o
b10000001010 0"
b100010000010101 /"
b10100 <"
b1000001010100011011000000000000000000000000000000000000000000000 :"
b10000001010 1"
b10000001010 9"
b1 5"
b10000001001 8"
b10000001100 7"
b11 r
b11 !"
b1001 c
b1001 |
b1001 -"
b1001 \"
b11 z
b1100 d
b1100 }
b1100 ."
b1100 Y"
b1 7
b1 @
b1 \
b1 _
b1 v
b1001 q
b1001 %"
b1001 ["
b1001 h
b1001 O"
b1001 W"
b11 i
b11 K"
b11 V"
b100100 T
b111 X
b10000110111000000001001 $"
b111 S"
b111 M"
b1001 L"
b11 H"
b11100010010000110111 9
b11100010010000110111000000001001 )
b11100010010000110111000000001001 3
b11100010010000110111000000001001 n
b11100010010000110111000000001001 a"
b10000 l
b10000 D"
b10000 F"
b10100 j
b10100 B"
b10100 U"
b10000 k
b10000 >"
b10000 @"
b10000 C"
b1100 (
b1100 1
b1100 m
b1100 ?"
b1100 G"
b1100 `"
1$
#55
0$
#60
b111 f
b111 E"
b111 Q"
b111 T"
b111 #
b111 *
b111 5
b111 s
b111 P"
b111 ]"
b111 r
b111 !"
b10000000100 o
b10000000100 0"
b100010000001000 /"
b10100 <"
b1000000100000000011110000000000000000000000000000000000000000000 :"
b10000000100 1"
b10000000100 9"
b1 5"
b10000000101 8"
b10000000011 7"
04
b101 c
b101 |
b101 -"
b101 \"
b101 !
b101 &
b101 -
b101 b
b101 X"
b101 Z"
b101 _"
b111111111111111111111111111111110 z
b11 d
b11 }
b11 ."
b11 Y"
b11 7
b11 @
b11 \
b11 _
b11 v
b1001 ^
b10 q
b10 %"
b10 ["
b10 h
b10 O"
b10 W"
b111 i
b111 K"
b111 V"
b11000 T
b100 X
b100001110100000000000010 $"
b100 S"
b100 M"
b10 L"
b111 H"
b11100001100001110100 9
b11100001100001110100000000000010 )
b11100001100001110100000000000010 3
b11100001100001110100000000000010 n
b11100001100001110100000000000010 a"
b10100 l
b10100 D"
b10100 F"
b11000 j
b11000 B"
b11000 U"
b10100 k
b10100 >"
b10100 @"
b10100 C"
b10000 (
b10000 1
b10000 m
b10000 ?"
b10000 G"
b10000 `"
1$
#65
0$
#70
b100 f
b100 E"
b100 Q"
b100 T"
b10000000111 8"
b100 #
b100 *
b100 5
b100 s
b100 P"
b100 ]"
b111 c
b111 |
b111 -"
b111 \"
b10000001001 o
b10000001001 0"
b100010000010011 /"
b10100 <"
b1000001001100010101000000000000000000000000000000000000000000000 :"
b10000001001 1"
b10000001001 9"
b1 5"
b10000001100 7"
b100 r
b100 !"
b111 !
b111 &
b111 -
b111 b
b111 X"
b111 Z"
b111 _"
b10011 z
b1100 d
b1100 }
b1100 ."
b1100 Y"
b10 7
b10 @
b10 \
b10 _
b10 v
b100 q
b100 %"
b100 ["
b100 h
b100 O"
b100 W"
b11 i
b11 K"
b11 V"
b0 T
b101 X
b110101000000000100 $"
b101 S"
b101 M"
b100 L"
b11 H"
b11100000000000110101 9
b11100000000000110101000000000100 )
b11100000000000110101000000000100 3
b11100000000000110101000000000100 n
b11100000000000110101000000000100 a"
b11000 l
b11000 D"
b11000 F"
b11100 j
b11100 B"
b11100 U"
b11000 k
b11000 >"
b11000 @"
b11000 C"
b10100 (
b10100 1
b10100 m
b10100 ?"
b10100 G"
b10100 `"
1$
#75
0$
#80
b1011 f
b1011 E"
b1011 Q"
b1011 T"
b1011 #
b1011 *
b1011 5
b1011 s
b1011 P"
b1011 ]"
b10000000101 o
b10000000101 0"
b100010000001011 /"
b10100 <"
b1000000101100000111000000000000000000000000000000000000000000000 :"
b10000000101 1"
b10000000101 9"
b1 5"
b10000000100 7"
b1011 r
b1011 !"
b1011 z
b100 d
b100 }
b100 ."
b100 Y"
b0 7
b0 @
b0 \
b0 _
b0 v
b101 i
b101 K"
b101 V"
b1000 T
b100001010101000000000100 $"
b101 H"
b11100000100001010101 9
b11100000100001010101000000000100 )
b11100000100001010101000000000100 3
b11100000100001010101000000000100 n
b11100000100001010101000000000100 a"
b11100 l
b11100 D"
b11100 F"
b100000 j
b100000 B"
b100000 U"
b11100 k
b11100 >"
b11100 @"
b11100 C"
b11000 (
b11000 1
b11000 m
b11000 ?"
b11000 G"
b11000 `"
1$
#85
0$
#90
b10000000011 8"
1R
1O
b11 c
b11 |
b11 -"
b11 \"
b11 B
b11 !
b11 &
b11 -
b11 b
b11 X"
b11 Z"
b11 _"
b11 >
b11 D
b11 ]
b1 7
b1 @
b1 \
b1 _
b1 v
b1000 f
b1000 E"
b1000 Q"
b1000 T"
b111 q
b111 %"
b111 ["
b111 h
b111 O"
b111 W"
b101 T
b1000 X
b1000 #
b1000 *
b1000 5
b1000 s
b1000 P"
b1000 ]"
b10101011000000000000111 $"
b1000 S"
b1000 M"
b111 L"
b11100000010101011000 9
b1000 r
b1000 !"
b10000000111 o
b10000000111 0"
b100010000001110 /"
b10100 <"
b1000000111000001000010000000000000000000000000000000000000000000 :"
b10000000111 1"
b10000000111 9"
b1 5"
b10000001011 7"
b11100000010101011000000000000111 )
b11100000010101011000000000000111 3
b11100000010101011000000000000111 n
b11100000010101011000000000000111 a"
b100000 l
b100000 D"
b100000 F"
b1000 z
b1011 d
b1011 }
b1011 ."
b1011 Y"
b100100 j
b100100 B"
b100100 U"
b100000 k
b100000 >"
b100000 @"
b100000 C"
b11100 (
b11100 1
b11100 m
b11100 ?"
b11100 G"
b11100 `"
1$
#95
0$
#100
b0 N
0*"
0x
b0 p
b0 ,"
0)"
0w
0{
b0 Q
b1011000 f
b1011000 E"
b1011000 Q"
b1011000 T"
b1000101100111100000000000000000000000000000000000000000000000000 :"
b1111111111111111111111111111111111111111111111111111111111110001 6"
b0 4"
b0 3"
b0 2"
b10000110000 8"
b0 6
b0 ?
b0 F
b0 u
b1011000 #
b1011000 *
b1011000 5
b1011000 s
b1011000 P"
b1011000 ]"
1<
0R
0O
b110000 c
b110000 |
b110000 -"
b110000 \"
b10000101100 o
b10000101100 0"
b10100 <"
b100010001011001 /"
b10000101100 1"
b10000101100 9"
b1 5"
b10000101000 7"
b0 t
b0 ~
0y
b1011000 r
b1011000 !"
14
0;
1Z
0[
b0 B
0.
bx !
bx &
bx -
bx b
bx X"
bx Z"
bx _"
b1011000 z
b101000 d
b101000 }
b101000 ."
b101000 Y"
1J"
b0 >
b0 D
b0 ]
b0 7
b0 @
b0 \
b0 _
b0 v
b110100010 ^
0E
b110000 q
b110000 %"
b110000 ["
b1100 h
b1100 O"
b1100 W"
b1111 i
b1111 K"
b1111 V"
b10 +
b10 8
b10 U
b10 `
b10 #"
b1 ,
b1 :
b1 Y
b1 a
b10 W
b100000 T
b0 X
b0 A
b0 G
b1100 $"
b0 S"
b0 M"
b1100 L"
b0 H"
b1010000000000000 9
b1010000000000000000000001100 )
b1010000000000000000000001100 3
b1010000000000000000000001100 n
b1010000000000000000000001100 a"
b100100 l
b100100 D"
b100100 F"
b101000 j
b101000 B"
b101000 U"
b100100 k
b100100 >"
b100100 @"
b100100 C"
b100000 (
b100000 1
b100000 m
b100000 ?"
b100000 G"
b100000 `"
1$
#105
0$
#110
b0 N
0x
b0 Q
0*"
1R
1O
0w
0{
b0 6
b0 ?
b0 F
b0 u
b0 p
b0 ,"
0)"
b0 2"
b11 B
b0 t
b0 ~
0y
1.
0<
b11 >
b11 D
b11 ]
b1 7
b1 @
b1 \
b1 _
b1 v
b1111111111111111111111111111111111111111111111111111111111110001 6"
b0 4"
b0 3"
b10000000111 8"
b11 i
b11 K"
b11 V"
04
1;
0Z
1[
00
b111 c
b111 |
b111 -"
b111 \"
b111 !
b111 &
b111 -
b111 b
b111 X"
b111 Z"
b111 _"
0J"
b1001 ^
1E
b101 f
b101 E"
b101 Q"
b101 T"
b100 q
b100 %"
b100 ["
b100 h
b100 O"
b100 W"
b0 +
b0 8
b0 U
b0 `
b0 #"
b0 ,
b0 :
b0 Y
b0 a
b0 W
b101 T
b1000 X
b1110 A
b1110 G
b101 #
b101 *
b101 5
b101 s
b101 P"
b101 ]"
b10100111000000000000100 $"
b1000 S"
b1000 M"
b100 L"
b11 H"
b11100000010100111000 9
b101 r
b101 !"
b10000001001 o
b10000001001 0"
b100010000010011 /"
b10100 <"
b1000001001100010101000000000000000000000000000000000000000000000 :"
b10000001001 1"
b10000001001 9"
b1 5"
b10000001100 7"
b11100000010100111000000000000100 )
b11100000010100111000000000000100 3
b11100000010100111000000000000100 n
b11100000010100111000000000000100 a"
b101 z
b1100 d
b1100 }
b1100 ."
b1100 Y"
b101000 l
b101000 D"
b101000 F"
b101100 j
b101100 B"
b101100 U"
b101000 k
b101000 >"
b101000 @"
b101000 C"
b100100 (
b100100 1
b100100 m
b100100 ?"
b100100 G"
b100100 `"
1$
#115
0$
#120
b0 N
0*"
0x
b0 p
b0 ,"
0)"
0w
0{
b0 Q
b110000 f
b110000 E"
b110000 Q"
b110000 T"
10
bx :"
bx 6"
b0 4"
b0 3"
b0 2"
b10000000000 8"
0R
0O
b0 6
b0 ?
b0 F
b0 u
b110000 #
b110000 *
b110000 5
b110000 s
b110000 P"
b110000 ]"
0.
1<
b0 c
b0 |
b0 -"
b0 \"
b10000011000 o
b10000011000 0"
b111111 <"
b0xxxxxxxxxxxxxxx /"
b10000011000 1"
b10000011000 9"
b1 5"
b10000110000 7"
b0 B
b0 t
b0 ~
0y
b110000 r
b110000 !"
14
0;
1Z
0[
b0 !
b0 &
b0 -
b0 b
b0 X"
b0 Z"
b0 _"
b110000 z
b110000 d
b110000 }
b110000 ."
b110000 Y"
1J"
b0 >
b0 D
b0 ]
b0 7
b0 @
b0 \
b0 _
b0 v
b110100010 ^
b0 q
b0 %"
b0 ["
b0 h
b0 O"
b0 W"
b1111 i
b1111 K"
b1111 V"
b10 +
b10 8
b10 U
b10 `
b10 #"
b1 ,
b1 :
b1 Y
b1 a
b10 W
b100000 T
b0 X
b1010 A
b1010 G
b0 $"
b0 S"
b0 M"
b0 L"
b0 H"
b10101010000000000000 9
b10101010000000000000000000000000 )
b10101010000000000000000000000000 3
b10101010000000000000000000000000 n
b10101010000000000000000000000000 a"
b110000 l
b110000 D"
b110000 F"
b110000 j
b110000 B"
b110000 U"
b101100 k
b101100 >"
b101100 @"
b101100 C"
b101000 (
b101000 1
b101000 m
b101000 ?"
b101000 G"
b101000 `"
1$
#125
0$
#130
b10 N
b10100 <"
b1000000100000000011110000000000000000000000000000000000000000000 :"
b1111111111111111111111111111111111111111111111111111111111110001 6"
0x
b10 Q
0*"
1R
1O
1w
1{
b1010 6
b1010 ?
b1010 F
b1010 u
b0 p
b0 ,"
0)"
b0 2"
00
b11 B
b1010 t
b1010 ~
0y
1.
0<
b11 >
b11 D
b11 ]
b1 7
b1 @
b1 \
b1 _
b1 v
b0 4"
b0 3"
b10000000101 8"
b111 i
b111 K"
b111 V"
04
1;
0Z
1[
b110100 l
b110100 D"
b110100 F"
b101 c
b101 |
b101 -"
b101 \"
b101 !
b101 &
b101 -
b101 b
b101 X"
b101 Z"
b101 _"
0J"
b1001 ^
b11111111111111111111111111111110 f
b11111111111111111111111111111110 E"
b11111111111111111111111111111110 Q"
b11111111111111111111111111111110 T"
b10 q
b10 %"
b10 ["
b10 h
b10 O"
b10 W"
b0 +
b0 8
b0 U
b0 `
b0 #"
b0 ,
b0 :
b0 Y
b0 a
b0 W
b101 T
b1000 X
b1110 A
b1110 G
b11111111111111111111111111111110 #
b11111111111111111111111111111110 *
b11111111111111111111111111111110 5
b11111111111111111111111111111110 s
b11111111111111111111111111111110 P"
b11111111111111111111111111111110 ]"
b10101111000000000000010 $"
b1000 S"
b1000 M"
b10 L"
b111 H"
b11100000010101111000 9
b11111111111111111111111111111110 r
b11111111111111111111111111111110 !"
b10000000100 o
b10000000100 0"
b100010000001000 /"
b10000000100 1"
b10000000100 9"
b1 5"
b10000000011 7"
b11100000010101111000000000000010 )
b11100000010101111000000000000010 3
b11100000010101111000000000000010 n
b11100000010101111000000000000010 a"
b111111111111111111111111111111110 z
b11 d
b11 }
b11 ."
b11 Y"
b111000 j
b111000 B"
b111000 U"
b110100 k
b110100 >"
b110100 @"
b110100 C"
b110000 (
b110000 1
b110000 m
b110000 ?"
b110000 G"
b110000 `"
1$
#135
0$
#140
b0 N
b0 Q
b0 6
b0 ?
b0 F
b0 u
b1100 f
b1100 E"
b1100 Q"
b1100 T"
b10000000001 8"
0w
0R
0O
b0 t
b0 ~
0{
b1100 #
b1100 *
b1100 5
b1100 s
b1100 P"
b1100 ]"
b1 c
b1 |
b1 -"
b1 \"
b10000000110 o
b10000000110 0"
b100010000001100 /"
b10100 <"
b1000000110000000010110000000000000000000000000000000000000000000 :"
b10000000110 1"
b10000000110 9"
b1 5"
b10000001011 7"
b0 B
b1100 r
b1100 !"
14
bx !
bx &
bx -
bx b
bx X"
bx Z"
bx _"
b1100 z
b1011 d
b1011 }
b1011 ."
b1011 Y"
b0 >
b0 D
b0 ]
b0 7
b0 @
b0 \
b0 _
b0 v
b101001 ^
b1 q
b1 %"
b1 ["
b1 h
b1 O"
b1 W"
b101 i
b101 K"
b101 V"
b101000 T
b111 X
b1011 A
b1011 G
0I
b100001010111000000000001 $"
b111 S"
b111 M"
b1 L"
b101 H"
b10110010100001010111 9
1L
1M
b10110010100001010111000000000001 )
b10110010100001010111000000000001 3
b10110010100001010111000000000001 n
b10110010100001010111000000000001 a"
b111000 l
b111000 D"
b111000 F"
b10 S
b1010 C
b1010 H
b10 P
b111100 j
b111100 B"
b111100 U"
b111000 k
b111000 >"
b111000 @"
b111000 C"
b110100 (
b110100 1
b110100 m
b110100 ?"
b110100 G"
b110100 `"
1$
#145
0$
#150
b111 f
b111 E"
b111 Q"
b111 T"
b111 #
b111 *
b111 5
b111 s
b111 P"
b111 ]"
b10000001000 o
b10000001000 0"
b100010000010001 /"
b10100 <"
b1000001000100001111000000000000000000000000000000000000000000000 :"
b10000001000 1"
b10000001000 9"
b1 5"
b10000000101 8"
b10000001100 7"
b111 r
b111 !"
04
b101 c
b101 |
b101 -"
b101 \"
b101 !
b101 &
b101 -
b101 b
b101 X"
b101 Z"
b101 _"
b111 z
b1100 d
b1100 }
b1100 ."
b1100 Y"
b1 7
b1 @
b1 \
b1 _
b1 v
b1001 ^
b10 q
b10 %"
b10 ["
b10 h
b10 O"
b10 W"
b111 i
b111 K"
b111 V"
b100 T
b1110 A
b1110 G
b10001110111000000000010 $"
b10 L"
b111 H"
b11100000010001110111 9
b11100000010001110111000000000010 )
b11100000010001110111000000000010 3
b11100000010001110111000000000010 n
b11100000010001110111000000000010 a"
b111100 l
b111100 D"
b111100 F"
b1000000 j
b1000000 B"
b1000000 U"
b111100 k
b111100 >"
b111100 @"
b111100 C"
b111000 (
b111000 1
b111000 m
b111000 ?"
b111000 G"
b111000 `"
1$
#155
0$
#160
0*"
b0 p
b0 ,"
0)"
b1111111111111111111111111111111111111111111111111111111111110001 6"
b0 4"
b0 3"
b10001010100 8"
0.
1"
b1010100 c
b1010100 |
b1010100 -"
b1010100 \"
14
12
0;
1=
0[
b111 !
b111 &
b111 -
b111 b
b111 X"
b111 Z"
b111 _"
1N"
b0 7
b0 @
b0 \
b0 _
b0 v
b1001110100 ^
bx f
bx E"
bx Q"
bx T"
b1010100 q
b1010100 %"
b1010100 ["
b111 h
b111 O"
b111 W"
b11 i
b11 K"
b11 V"
b1 +
b1 8
b1 U
b1 `
b1 #"
b10 ,
b10 :
b10 Y
b10 a
b1 W
b11000 T
b1100000 #
b1100000 *
b1100000 5
b1100000 s
b1100000 P"
b1100000 ]"
b100000110111000001010100 $"
b100 L"
b11 H"
b11100101100000110111 9
b1100000 r
b1100000 !"
b10000110000 o
b10000110000 0"
b100010001100000 /"
b10100 <"
b1000110000011111100000000000000000000000000000000000000000000000 :"
b10000110000 1"
b10000110000 9"
b1 5"
b10000001100 7"
b11100101100000110111000001010100 )
b11100101100000110111000001010100 3
b11100101100000110111000001010100 n
b11100101100000110111000001010100 a"
b1000000 l
b1000000 D"
b1000000 F"
b1100000 z
b1100 d
b1100 }
b1100 ."
b1100 Y"
b1000100 j
b1000100 B"
b1000100 U"
b1000000 k
b1000000 >"
b1000000 @"
b1000000 C"
b111100 (
b111100 1
b111100 m
b111100 ?"
b111100 G"
b111100 `"
1$
#165
0$
